[{
  "_id": {
    "$oid": "5f2334b509ba2e1614fe82fd"
  },
  "purchases": [
    {
      "$oid": "5f21de4f894ed7547833e26d"
    }
  ],
  "mail": "usuarioAdministrador@ninjartist.com",
  "dateCreate": {
    "$date": "2020-07-29T20:38:39.224Z"
  },
  "createdAt": {
    "$date": "2020-07-29T20:38:39.225Z"
  },
  "updatedAt": {
    "$date": "2020-07-29T20:38:39.470Z"
  },
  "password": "pepeGrilloTormenta123!",
  "__v": 0
}]